{
  "classifierPath" : "meta::pure::runtime::PackageableRuntime",
  "content" : {
    "_type" : "runtime",
    "name" : "H2Runtime",
    "package" : "Model::physicalModel",
    "runtimeValue" : {
      "_type" : "engineRuntime",
      "connections" : [ {
        "store" : {
          "path" : "Model::physicalModel::currencyDatabase",
          "type" : "STORE"
        },
        "storeConnections" : [ {
          "connection" : {
            "_type" : "connectionPointer",
            "connection" : "Model::physicalModel::H2Sample"
          },
          "id" : "connection_1"
        } ]
      } ],
      "mappings" : [ {
        "path" : "Model::physicalModel::physicalMapping",
        "type" : "MAPPING"
      } ]
    }
  }
}