{
  "classifierPath" : "meta::pure::metamodel::type::Enumeration",
  "content" : {
    "_type" : "Enumeration",
    "name" : "RoundingDirectionEnumeration",
    "package" : "Model",
    "taggedValues" : [ {
      "tag" : {
        "profile" : "meta::pure::profiles::doc",
        "value" : "doc"
      },
      "value" : "Specifies the rounding direction using an enumerated value."
    } ],
    "values" : [ {
      "taggedValues" : [ {
        "tag" : {
          "profile" : "meta::pure::profiles::doc",
          "value" : "doc"
        },
        "value" : "Denotes that a fractional number will be rounded up to the specified number of decimal places (the precision). For example, 5.21 and 5.25 rounded up to 1 decimal place of precision are 5.3 and 5.3 respectively."
      } ],
      "value" : "Up"
    }, {
      "taggedValues" : [ {
        "tag" : {
          "profile" : "meta::pure::profiles::doc",
          "value" : "doc"
        },
        "value" : "Denotes that a fractional number will be rounded down (aka truncated) to the specified number of decimal places (the precision). For example, 5.29 and 5.25 rounded down to 1 decimal place of precision are 5.2 and 5.2 respectively."
      } ],
      "value" : "Down"
    }, {
      "taggedValues" : [ {
        "tag" : {
          "profile" : "meta::pure::profiles::doc",
          "value" : "doc"
        },
        "value" : "Denotes that a fractional number will be rounded either up or down to the specified number of decimal places (the precision) depending on its value. For example, assuming a precious of 1 decimal place, the value of 5.24 would be rounded down to 5.2 and 5.25 would be rounded up to 5.3, according to this rule."
      } ],
      "value" : "Nearest"
    } ]
  }
}