{
  "classifierPath" : "meta::pure::metamodel::type::Enumeration",
  "content" : {
    "_type" : "Enumeration",
    "name" : "ShoreTypeEnumeration",
    "package" : "Model",
    "values" : [ {
      "value" : "Onshore"
    }, {
      "value" : "Offshore"
    } ]
  }
}