{
  "classifierPath" : "meta::pure::metamodel::type::Enumeration",
  "content" : {
    "_type" : "Enumeration",
    "name" : "StatusEnumeration",
    "package" : "Model",
    "taggedValues" : [ {
      "tag" : {
        "profile" : "meta::pure::profiles::doc",
        "value" : "doc"
      },
      "value" : "Denotes the status of the currency as Active, Inactive, or Pending."
    } ],
    "values" : [ {
      "value" : "Active"
    }, {
      "value" : "Inactive"
    } ]
  }
}